{
  "rnaSeq.threads": "20",
  "rnaSeq.genomeDir": "/vlsci/SG0009/bshaban/gatk/development/zebra",
  "rnaSeq.sampleName": "6h",
  "rnaSeq.inputFastqRead1": "6h_1.fastq",
  "rnaSeq.inputFastqRead2": "6h_2.fastq",
  "rnaSeq.picardLocation": "/vlsci/SG0009/bshaban/gatk/javaJars/picard.jar",
  "rnaSeq.gatkLocation": "/vlsci/SG0009/bshaban/gatk/javaJars/GenomeAnalysisTK.jar",
  "rnaSeq.refFasta": "/vlsci/SG0009/bshaban/gatk/development/zebra/Danio_rerio.GRCz10.dna.toplevel.fa",
  "rnaSeq.refFastaIndex": "/vlsci/SG0009/bshaban/gatk/development/zebra/Danio_rerio.GRCz10.dna.toplevel.fa.fai",
  "rnaSeq.refFastaSampleName": "Danio_rerio.GRCz10.dna.toplevel",
  "rnaSeq.picard.typeARRG": "AddOrReplaceReadGroups",
  "rnaSeq.picard.readGroupPlatform": "platform",
  "rnaSeq.picard.readGroupID": "id",
  "rnaSeq.picard.readGroupLibrary": "library",
  "rnaSeq.picard.sortOrder": "coordinate",
  "rnaSeq.picard.readGroupPlatformBarcode": "machine",
  "rnaSeq.picardMarkDuplicates.typeMD": "MarkDuplicates",
  "rnaSeq.picardMarkDuplicates.createIndex": "true",
  "rnaSeq.picardMarkDuplicates.validationStringency": "SILENT",
  "rnaSeq.picardMarkDuplicates.outputMetrics": "output.metrics",
  "rnaSeq.variantCalling.variantCallType": "HaplotypeCaller",
  "rnaSeq.variantCalling.standCallConf": "20",
  "rnaSeq.splitNCigarReads.splitCigars": "SplitNCigarReads",
  "rnaSeq.splitNCigarReads.RF": "ReassignOneMappingQuality",
  "rnaSeq.splitNCigarReads.RMQF": "255",
  "rnaSeq.splitNCigarReads.RMQT": "60",
  "rnaSeq.splitNCigarReads.U": "ALLOW_N_CIGAR_READS"
}
